<?xml version="1.0" encoding="utf-8"?>
<!-- Generator: Adobe Illustrator 21.0.0, SVG Export Plug-In . SVG Version: 6.00 Build 0)  -->
<svg version="1.1" id="Layer_1" xmlns="http://www.w3.org/2000/svg" xmlns:xlink="http://www.w3.org/1999/xlink" x="0px" y="0px"
	 viewBox="0 0 85.2 85.2" style="enable-background:new 0 0 85.2 85.2;" xml:space="preserve">
<style type="text/css">
	.st0{fill:#6882CC;}
</style>
<g>
	<path class="st0" d="M42.6,85.2C19.1,85.2,0,66.1,0,42.6S19.1,0,42.6,0s42.6,19.1,42.6,42.6S66.1,85.2,42.6,85.2z M42.6,7
		C23,7,7,23,7,42.6s16,35.6,35.6,35.6s35.6-16,35.6-35.6S62.3,7,42.6,7z"/>
</g>
</svg>
